Fig-5_ping-pong - A Naïve RNA Sampling Core Enables Adaptive piRNA Specificity Against Transposable Elements - 2026-02
…
###############################################################################################
###############################################################################################
###############################################################################################
# ########################### GL ping-pong analysis
###############################################
###############################################################################################
###############################################################################################
###############################################################################################

### get the table file name for Brennecke linkage
RAW=read_tsv("TE_piRNA_5p3p_matrix.txt",col_types=list(TE=col_character()))
RAW

## # A tibble: 27,565,427 × 6
##    TE            POS `5END_plus` `3END_plus` `5END_minus` `3END_minus`
##    <chr>       <dbl>       <dbl>       <dbl>        <dbl>        <dbl>
##  1 FBgn0003187     0           0           0            0            0
##  2 FBgn0003187     1           0           0            0            0
##  3 FBgn0003187     2           0           0            0            0
##  4 FBgn0003187     3           0           0            0            0
##  5 FBgn0003187     4           0           0            0            0
##  6 FBgn0003187     5           0           0            0            0
##  7 FBgn0003187     6           0           0            0            0
##  8 FBgn0003187     7           0           0            0            0
##  9 FBgn0003187     8           0           0            0            0
## 10 FBgn0003187     9           0           0            0            0
## # ℹ 27,565,417 more rows
…
